{
  "images" : [
    {
      "idiom" : "universal",
      "filename" : "Asset (15).png",
      "scale" : "1x"
    },
    {
      "idiom" : "universal",
      "filename" : "Asset (15)-1.png",
      "scale" : "2x"
    },
    {
      "idiom" : "universal",
      "filename" : "Asset (15)-2.png",
      "scale" : "3x"
    }
  ],
  "info" : {
    "version" : 1,
    "author" : "xcode"
  }
}